[
  {
    "_id": "5dc1d6e65f7e167a94a7cab4",
    "index": 0,
    "about": "Irure anim dolor id aliqua aliqua do. Lorem tempor dolore veniam ea sint quis mollit veniam reprehenderit nisi eiusmod laborum aliquip. Fugiat id voluptate irure aliqua velit commodo.\r\n",
    "name": "Leonor Howard",
    "email": "leonorhoward@bitendrex.com",
    "picture": "http://placehold.it/32x32",
    "greeting": "Hello, Leonor Howard! You have 2 unread messages.",
    "favoriteFruit": "banana"
  },
  {
    "_id": "5dc1d6e69a84b1af3e6c012d",
    "index": 1,
    "about": "Quis mollit enim aute deserunt exercitation nisi qui. Incididunt occaecat quis enim Lorem ullamco id sunt dolore exercitation officia labore incididunt ea in. Sunt et amet laboris minim nulla non fugiat Lorem reprehenderit. Nisi minim sunt nisi proident sint duis culpa officia Lorem reprehenderit aliqua. Ullamco reprehenderit minim elit cupidatat nostrud non. Eu non officia ipsum officia sunt occaecat consequat velit duis esse proident ipsum ipsum. Culpa velit est amet et et consequat.\r\n",
    "name": "Debora Osborne",
    "email": "deboraosborne@bitendrex.com",
    "picture": "http://placehold.it/32x32",
    "greeting": "Hello, Debora Osborne! You have 2 unread messages.",
    "favoriteFruit": "apple"
  },
  {
    "_id": "5dc1d6e609338d9df2cbd213",
    "index": 2,
    "about": "Proident laboris nostrud adipisicing sit do sit sint ex elit veniam nulla aliquip. Mollit non voluptate consequat nisi aute dolor do. Exercitation proident officia dolore commodo. Minim sunt incididunt deserunt labore eiusmod enim reprehenderit officia exercitation occaecat officia. Lorem laborum nostrud qui ipsum mollit eu enim quis. Nisi consectetur enim cillum et. Pariatur consectetur eu magna est aute laboris aliquip.\r\n",
    "name": "Katharine Pollard",
    "email": "katharinepollard@bitendrex.com",
    "picture": "http://placehold.it/32x32",
    "greeting": "Hello, Katharine Pollard! You have 7 unread messages.",
    "favoriteFruit": "apple"
  },
  {
    "_id": "5dc1d6e65eecbec822e2ae87",
    "index": 3,
    "about": "Commodo consectetur sit pariatur nisi ipsum consectetur dolore sit ex ex adipisicing. Occaecat consectetur adipisicing culpa elit velit voluptate duis proident veniam. Eiusmod sint enim elit aute in occaecat minim consectetur ea eiusmod voluptate.\r\n",
    "name": "Guy Richards",
    "email": "guyrichards@bitendrex.com",
    "picture": "http://placehold.it/32x32",
    "greeting": "Hello, Guy Richards! You have 8 unread messages.",
    "favoriteFruit": "strawberry"
  },
  {
    "_id": "5dc1d6e6f4295de8bc26347b",
    "index": 4,
    "about": "Aliqua minim ut incididunt dolor occaecat sint sit. Ea anim Lorem commodo dolore pariatur ipsum. Esse ea proident culpa pariatur fugiat. Adipisicing sunt cupidatat velit ex ea non sint nisi et fugiat do proident consectetur nisi. Dolor magna laboris ipsum esse culpa qui consequat velit consectetur exercitation est pariatur do dolore. Amet elit qui amet ea irure laborum tempor duis do sit. Commodo fugiat reprehenderit dolore mollit ex consectetur excepteur duis culpa quis eiusmod.\r\n",
    "name": "Guthrie Graham",
    "email": "guthriegraham@bitendrex.com",
    "picture": "http://placehold.it/32x32",
    "greeting": "Hello, Guthrie Graham! You have 9 unread messages.",
    "favoriteFruit": "banana"
  }
]